^C:\USERS\W_DOY\SOURCE\REPOS\OPENGLISCOOL\OPENGLISCOOL\OPENGLISCOOL\GLAD.C
C:\USERS\W_DOY\SOURCE\REPOS\OPENGLISCOOL\OPENGLISCOOL\OPENGLISCOOL\X64\DEBUG\VC142.PDB
C:\USERS\W_DOY\SOURCE\REPOS\OPENGLISCOOL\OPENGLISCOOL\OPENGLISCOOL\X64\DEBUG\VC142.IDB
C:\USERS\W_DOY\SOURCE\REPOS\OPENGLISCOOL\OPENGLISCOOL\OPENGLISCOOL\X64\DEBUG\GLAD.OBJ
^C:\USERS\W_DOY\SOURCE\REPOS\OPENGLISCOOL\OPENGLISCOOL\OPENGLISCOOL\THE_MAIN.CPP
C:\USERS\W_DOY\SOURCE\REPOS\OPENGLISCOOL\OPENGLISCOOL\OPENGLISCOOL\X64\DEBUG\VC142.PDB
C:\USERS\W_DOY\SOURCE\REPOS\OPENGLISCOOL\OPENGLISCOOL\OPENGLISCOOL\X64\DEBUG\VC142.IDB
C:\USERS\W_DOY\SOURCE\REPOS\OPENGLISCOOL\OPENGLISCOOL\OPENGLISCOOL\X64\DEBUG\THE_MAIN.OBJ
